%YAML 1.1
%TAG !u! tag:unity3d.com,2011:
--- !u!1045 &1
EditorBuildSettings:
  m_ObjectHideFlags: 0
  serializedVersion: 2
  m_Scenes:
  - enabled: 1
    path: Assets/BoxBlox/Scenes/Initialize.unity
  - enabled: 1
    path: Assets/BoxBlox/Scenes/Intro.unity
  - enabled: 1
    path: Assets/BoxBlox/Scenes/MainMenu.unity
  - enabled: 1
    path: Assets/BoxBlox/Scenes/MultiPlayer.unity
